<?xml version="1.0" encoding="utf-8"?>
<!-- Generator: Adobe Illustrator 22.0.1, SVG Export Plug-In . SVG Version: 6.00 Build 0)  -->
<svg version="1.1" id="Layer_1" xmlns="http://www.w3.org/2000/svg" xmlns:xlink="http://www.w3.org/1999/xlink" x="0px" y="0px"
	 viewBox="0 0 1200 140" style="enable-background:new 0 0 1200 140;" xml:space="preserve">
<style type="text/css">
	.st0{fill:url(#SVGID_1_);}
	.st1{fill:url(#SVGID_2_);}
	.st2{fill:url(#SVGID_3_);}
	.st3{fill:url(#SVGID_4_);}
	.st4{fill:url(#SVGID_5_);}
	.st5{fill:url(#SVGID_6_);}
	.st6{fill:url(#SVGID_7_);}
	.st7{fill:url(#SVGID_8_);}
	.st8{fill:url(#SVGID_9_);}
	.st9{fill:url(#SVGID_10_);}
	.st10{fill:url(#SVGID_11_);}
	.st11{fill:url(#SVGID_12_);}
	.st12{fill:url(#SVGID_13_);}
	.st13{fill:#4FEAFF;}
	.st14{fill:#FF6363;}
	.st15{fill:#23C8FF;}
	.st16{fill:#16E49E;}
</style>
<g>
	<g>
		<linearGradient id="SVGID_1_" gradientUnits="userSpaceOnUse" x1="-19.5283" y1="68.8831" x2="1290.6675" y2="68.8831">
			<stop  offset="0" style="stop-color:#4FEAFF"/>
			<stop  offset="1" style="stop-color:#72C3FE"/>
		</linearGradient>
		<polygon class="st0" points="62.8,98.4 32.4,0 0,0 46.8,137.8 76.5,137.8 123.5,0 93.7,0 		"/>
		<linearGradient id="SVGID_2_" gradientUnits="userSpaceOnUse" x1="-19.5283" y1="87.6949" x2="1290.6675" y2="87.6949">
			<stop  offset="0" style="stop-color:#4FEAFF"/>
			<stop  offset="1" style="stop-color:#72C3FE"/>
		</linearGradient>
		<rect x="130.4" y="37.6" class="st1" width="27.3" height="100.1"/>
		<linearGradient id="SVGID_3_" gradientUnits="userSpaceOnUse" x1="-19.5283" y1="77.3639" x2="1290.6675" y2="77.3639">
			<stop  offset="0" style="stop-color:#4FEAFF"/>
			<stop  offset="1" style="stop-color:#72C3FE"/>
		</linearGradient>
		<path class="st2" d="M225.5,116.2c-7.4,0-11.7-4.7-11.7-13.2V62.2h23.5V39.9h-23.5V15.5h-27.3v24.4h-14.5v22.3h14.5v41.1
			c0,23.8,13,35.9,35.2,35.9c8.4,0,16.6-2,22.2-6.3l-7.4-20.5C233.5,114.9,229.5,116.2,225.5,116.2z"/>
		<linearGradient id="SVGID_4_" gradientUnits="userSpaceOnUse" x1="-19.5283" y1="87.6949" x2="1290.6675" y2="87.6949">
			<stop  offset="0" style="stop-color:#4FEAFF"/>
			<stop  offset="1" style="stop-color:#72C3FE"/>
		</linearGradient>
		<path class="st3" d="M293.7,36.1c-15.1,0-30.3,4.3-40.6,12.1l9.8,20.3c6.8-5.8,17.2-9.3,27.1-9.3c14.7,0,21.7,7.3,21.7,19.7h-21.7
			c-28.7,0-40.4,12.3-40.4,30c0,17.3,13.1,30.3,35.2,30.3c13.8,0,23.6-4.8,28.7-14v12.5h25.6V80.6C339.1,50.3,322.5,36.1,293.7,36.1
			z M311.8,106.1c-3.2,9.1-11,13.6-20.1,13.6c-9.6,0-15.4-4.8-15.4-12.1c0-6.7,4-11.7,16.8-11.7h18.7V106.1z"/>
		<linearGradient id="SVGID_5_" gradientUnits="userSpaceOnUse" x1="-19.5283" y1="86.9504" x2="1290.6675" y2="86.9504">
			<stop  offset="0" style="stop-color:#4FEAFF"/>
			<stop  offset="1" style="stop-color:#72C3FE"/>
		</linearGradient>
		<path class="st4" d="M473.9,36.1c-14.2,0-26.4,6.1-34,16.4c-6.7-11-17.9-16.4-31-16.4c-12.1,0-22.6,4.5-29.6,13V37.6h-26.1v100.1
			h27.3V87.5c0-17.9,8.6-26.2,20.7-26.2c11.4,0,17.9,7.4,17.9,23.6v52.9h27.3V87.5c0-17.9,8.6-26.2,20.8-26.2
			c11,0,17.9,7.4,17.9,23.6v52.9h27.3V80.4C512.4,49.9,496.3,36.1,473.9,36.1z"/>
		<linearGradient id="SVGID_6_" gradientUnits="userSpaceOnUse" x1="-19.5283" y1="87.6949" x2="1290.6675" y2="87.6949">
			<stop  offset="0" style="stop-color:#4FEAFF"/>
			<stop  offset="1" style="stop-color:#72C3FE"/>
		</linearGradient>
		<rect x="529.9" y="37.6" class="st5" width="27.3" height="100.1"/>
		<linearGradient id="SVGID_7_" gradientUnits="userSpaceOnUse" x1="-19.5283" y1="86.9504" x2="1290.6675" y2="86.9504">
			<stop  offset="0" style="stop-color:#4FEAFF"/>
			<stop  offset="1" style="stop-color:#72C3FE"/>
		</linearGradient>
		<path class="st6" d="M632.9,36.1c-12.8,0-23.8,4.7-31.2,13.2V37.6h-26.1v100.1h27.3V88.3c0-18.4,9.5-27,22.6-27
			c12.1,0,19.1,7.4,19.1,23.6v52.9h27.3V80.4C671.9,49.9,655.1,36.1,632.9,36.1z"/>
		<linearGradient id="SVGID_8_" gradientUnits="userSpaceOnUse" x1="-19.5283" y1="87.6949" x2="1290.6675" y2="87.6949">
			<stop  offset="0" style="stop-color:#4FEAFF"/>
			<stop  offset="1" style="stop-color:#72C3FE"/>
		</linearGradient>
		<rect x="689.6" y="37.6" class="st7" width="27.3" height="100.1"/>
		<linearGradient id="SVGID_9_" gradientUnits="userSpaceOnUse" x1="-19.5283" y1="86.9504" x2="1290.6675" y2="86.9504">
			<stop  offset="0" style="stop-color:#4FEAFF"/>
			<stop  offset="1" style="stop-color:#72C3FE"/>
		</linearGradient>
		<path class="st8" d="M792.6,36.1c-12.8,0-23.8,4.7-31.2,13.2V37.6h-26.1v100.1h27.3V88.3c0-18.4,9.5-27,22.6-27
			c12.1,0,19.1,7.4,19.1,23.6v52.9h27.3V80.4C831.6,49.9,814.8,36.1,792.6,36.1z"/>
		<linearGradient id="SVGID_10_" gradientUnits="userSpaceOnUse" x1="-19.5283" y1="87.6949" x2="1290.6675" y2="87.6949">
			<stop  offset="0" style="stop-color:#4FEAFF"/>
			<stop  offset="1" style="stop-color:#72C3FE"/>
		</linearGradient>
		<rect x="849.3" y="37.6" class="st9" width="27.3" height="100.1"/>
		<linearGradient id="SVGID_11_" gradientUnits="userSpaceOnUse" x1="-19.5283" y1="72.6177" x2="1290.6675" y2="72.6177">
			<stop  offset="0" style="stop-color:#4FEAFF"/>
			<stop  offset="1" style="stop-color:#72C3FE"/>
		</linearGradient>
		<path class="st10" d="M920,44.3c0-8.2,6.5-14.9,23.3-14.9c10.9,0,22.6,3.4,34,10.2l8.8-22.9c-11.4-7.6-27.1-11.5-42.5-11.5
			c-34.8,0-51.7,18.4-51.7,40.6c0,48.4,71.3,31.6,71.3,56c0,8-6.8,14-23.6,14c-14.7,0-30.1-5.6-40.4-13.6l-9.6,22.7
			c10.9,8.9,30.5,15.1,49.9,15.1c35,0,52-18.6,52-40.4C991.3,51.8,920,68.3,920,44.3z"/>
		<linearGradient id="SVGID_12_" gradientUnits="userSpaceOnUse" x1="-19.5283" y1="87.6949" x2="1290.6675" y2="87.6949">
			<stop  offset="0" style="stop-color:#4FEAFF"/>
			<stop  offset="1" style="stop-color:#72C3FE"/>
		</linearGradient>
		<path class="st11" d="M1048.5,36.1c-28.7,0-50.3,21.6-50.3,51.6c0,29.8,21.2,51.6,53.8,51.6c17,0,30.1-5.6,38.9-16.2l-14.5-16.8
			c-6.5,6.5-13.7,9.7-23.6,9.7c-14.4,0-24.3-7.6-27-20.1h71.3c0.2-2.4,0.5-5.6,0.5-7.8C1097.6,55.9,1076.2,36.1,1048.5,36.1z
			 M1025.4,78.9c1.9-12.8,10.9-20.8,23.3-20.8c12.3,0,21.2,8.2,23.1,20.8H1025.4z"/>
		<linearGradient id="SVGID_13_" gradientUnits="userSpaceOnUse" x1="-19.5283" y1="87.6949" x2="1290.6675" y2="87.6949">
			<stop  offset="0" style="stop-color:#4FEAFF"/>
			<stop  offset="1" style="stop-color:#72C3FE"/>
		</linearGradient>
		<path class="st12" d="M1157.6,115.4c-13.8,0-24.7-10.2-24.7-27.7s10.9-27.7,24.7-27.7c8.6,0,16.1,4.3,21.2,13.8l21.2-12.1
			c-6.8-16.4-22.4-25.5-42.2-25.5c-30.6,0-52.5,21.4-52.5,51.6s21.9,51.6,52.5,51.6c19.8,0,35.4-9.3,42.2-25.3l-21.2-12.3
			C1173.7,111.3,1166.2,115.4,1157.6,115.4z"/>
	</g>
	<ellipse class="st13" cx="144" cy="13.6" rx="13.7" ry="13.6"/>
	<ellipse class="st14" cx="543.6" cy="13.6" rx="13.7" ry="13.6"/>
	<ellipse class="st15" cx="703.3" cy="13.6" rx="13.7" ry="13.6"/>
	<ellipse class="st16" cx="863" cy="13.6" rx="13.7" ry="13.6"/>
</g>
</svg>
