<?xml version="1.0" encoding="utf-8"?>
<!-- Generator: Adobe Illustrator 22.0.1, SVG Export Plug-In . SVG Version: 6.00 Build 0)  -->
<svg version="1.1" id="Layer_1" xmlns="http://www.w3.org/2000/svg" xmlns:xlink="http://www.w3.org/1999/xlink" x="0px" y="0px"
	 viewBox="0 0 200 200" style="enable-background:new 0 0 200 200;" xml:space="preserve">
<style type="text/css">
	.st0{fill:#00DCFF;}
</style>
<g>
	<g>
		<polygon class="st0" points="168,92 152,92 152,76 144,76 144,92 128,92 128,100 144,100 144,116 152,116 152,100 168,100 		"/>
		<path class="st0" d="M80,108h22.6c-3.3,9.3-12.2,16-22.6,16c-13.2,0-24-10.8-24-24s10.8-24,24-24c5.7,0,11.3,2.1,15.5,5.8
			l10.5-12.1C98.9,63.5,89.6,60,80,60c-22.1,0-40,17.9-40,40s17.9,40,40,40s40-17.9,40-40v-8H80V108z"/>
	</g>
	<path class="st0" d="M100,0C44.9,0,0,44.9,0,100s44.9,100,100,100s100-44.9,100-100S155.1,0,100,0z M100,188.5
		c-48.8,0-88.5-39.7-88.5-88.5S51.2,11.5,100,11.5s88.5,39.7,88.5,88.5S148.8,188.5,100,188.5z"/>
</g>
</svg>
